<?xml version="1.0" encoding="utf-8"?>
<!-- Generator: Adobe Illustrator 20.0.0, SVG Export Plug-In . SVG Version: 6.00 Build 0)  -->
<svg version="1.1" id="Capa_1" xmlns="http://www.w3.org/2000/svg" xmlns:xlink="http://www.w3.org/1999/xlink" x="0px" y="0px"
	 viewBox="0 0 40 40" style="enable-background:new 0 0 40 40;" xml:space="preserve">
<style type="text/css">
	.st0{fill:#E8385A;}
	.st1{fill:none;}
	.st2{fill:#FFFFFF;}
	.st3{font-family:'Lato-Semibold';}
	.st4{font-size:14px;}
</style>
<circle class="st0" cx="20" cy="20" r="20"/>
<rect x="0.1" y="15.3" class="st1" width="39.9" height="10.5"/>
<text transform="matrix(1 0 0 1 4.7891 25.6411)" class="st2 st3 st4">.PDF</text>
</svg>
